1899624_669330699808303_7012754934056084432_o.jpg||
10511147_669824709758902_5067766188678965054_n.jpg||
10483959_669265706481469_5791183708640003337_o.jpg||
10442926_669824163092290_5158080013514570513_n.jpg||
10511319_669832433091463_3757494420609927295_n.jpg||
10329970_669661816441858_1953731707708287799_o.jpg||
10372949_669405083134198_6780481222555204618_o.jpg||
10478566_669826116425428_3562667932586730006_n.jpg||
10479352_669346086473431_8110364141329300759_o.jpg||
